{
  "$schema": "http://json-schema.org/draft-06/schema#",
  "$id": "urn:OCPP:Cp:2:2018:4:CostUpdatedRequest",
  "comment": "OCPP 2.0 - v1p0",
  "type": "object",
  "additionalProperties": true,
  "properties": {
    "totalCost": {
      "type": "number"
    },
    "transactionId": {
      "type": "string",
      "maxLength": 36
    }
  },
  "required": [
    "totalCost",
    "transactionId"
  ]
}