{
  "$schema": "http://json-schema.org/draft-06/schema#",
  "$id": "urn:OCPP:Cp:2:2018:4:Update15118EVCertificateRequest",
  "comment": "OCPP 2.0 - v1p0",
  "type": "object",
  "additionalProperties": true,
  "properties": {
    "15118SchemaVersion": {
      "type": "string",
      "maxLength": 50
    },
    "exiRequest": {
      "type": "string",
      "maxLength": 5500
    }
  },
  "required": [
    "15118SchemaVersion",
    "exiRequest"
  ]
}